<svg width="60" height="60" viewBox="0 0 60 60" fill="none" xmlns="http://www.w3.org/2000/svg">
<g id="Card">
<path id="Union" fill-rule="evenodd" clip-rule="evenodd" d="M25.5 12C25.5 11.1716 26.1716 10.5 27 10.5H33C33.8284 10.5 34.5 11.1716 34.5 12C34.5 12.8284 33.8284 13.5 33 13.5H27C26.1716 13.5 25.5 12.8284 25.5 12ZM22.7561 10.5H21C16.8579 10.5 13.5 13.8579 13.5 18V42C13.5 46.1421 16.8579 49.5 21 49.5H39C43.1421 49.5 46.5 46.1421 46.5 42V18C46.5 13.8579 43.1421 10.5 39 10.5H37.2439C36.6262 8.75221 34.9593 7.5 33 7.5H27C25.0407 7.5 23.3738 8.75221 22.7561 10.5ZM37.2439 13.5C36.6262 15.2478 34.9593 16.5 33 16.5H27C25.0407 16.5 23.3738 15.2478 22.7561 13.5H21C18.5147 13.5 16.5 15.5147 16.5 18V42C16.5 44.4853 18.5147 46.5 21 46.5H39C41.4853 46.5 43.5 44.4853 43.5 42V18C43.5 15.5147 41.4853 13.5 39 13.5H37.2439Z" fill="#EA3C47"/>
<path id="Vector 296" d="M22.5 24H37.5" stroke="#EA3C47" stroke-width="3" stroke-linecap="round"/>
<path id="Vector 297" d="M22.5 30H37.5" stroke="#EA3C47" stroke-width="3" stroke-linecap="round"/>
<path id="Vector 298" d="M22.5 36H30" stroke="#EA3C47" stroke-width="3" stroke-linecap="round"/>
</g>
</svg>
